…
      url_data <- tibble(
        name = name,
        email = email,
        office = office,
        title = title,
        education = education,
        interests = interests)
      return(url_data)
    })

    faculty_df <- bind_rows(faculty_data) %>%
      distinct(name, .keep_all = TRUE)
    faculty_df

    ## # A tibble: 27 × 6
    ##    name                 email                   office title education interests
    ##    <chr>                <chr>                   <chr>  <chr> <chr>     <chr>    
    ##  1 Andrew Abbott        aabbott@uchicago.edu    Socia… Gust… "B.A. Ha… Professi…
    ##  2 Luc Anselin          anselin@uchicago.edu    Socia… Stei… "B.S. Vr… Spatial …
    ##  3 Joyce Bell           jmbell@uchicago.edu     Kelly… Asso… "Not lis… Race, so…
    ##  4 Neil Brenner         neilbrenner@uchicago.e… Socia… Lucy… "B.A. Su… Critical…
    ##  5 Terry N. Clark       t-clark@uchicago.edu    Socia… Prof… "B.A. Bo… Using de…
    ##  6 Elisabeth S. Clemens clemens@uchicago.edu    Socia… Will… "B.A. Ha… Politica…
    ##  7 James A. Evans       jevans@uchicago.edu     Socia… Max … "B.A. Br… Knowing,…
    ##  8 René D. Flores       renedf@uchicago.edu     Socia… Asso… "B.A. Un… Immigrat…
    ##  9 Marco Garrido        garrido@uchicago.edu    Socia… Asso… "B.A. Ha… Politica…
    ## 10 Andreas Glaeser      a-glaeser@uchicago.edu  Socia… Prof… "B.A. Eb… Cultural…
    ## # ℹ 17 more rows
…
    write_csv(faculty_df, "faculty_data.csv")
    faculty_data <- read_csv("faculty_data.csv")

    ## Rows: 27 Columns: 6
    ## ── Column specification ────────────────────────────────────────────────────────
    ## Delimiter: ","
    ## chr (6): name, email, office, title, education, interests
    ## 
    ## ℹ Use `spec()` to retrieve the full column specification for this data.
    ## ℹ Specify the column types or set `show_col_types = FALSE` to quiet this message.

    faculty_data

    ## # A tibble: 27 × 6
    ##    name                 email                   office title education interests
    ##    <chr>                <chr>                   <chr>  <chr> <chr>     <chr>    
    ##  1 Andrew Abbott        aabbott@uchicago.edu    Socia… Gust… "B.A. Ha… Professi…
    ##  2 Luc Anselin          anselin@uchicago.edu    Socia… Stei… "B.S. Vr… Spatial …
    ##  3 Joyce Bell           jmbell@uchicago.edu     Kelly… Asso… "Not lis… Race, so…
    ##  4 Neil Brenner         neilbrenner@uchicago.e… Socia… Lucy… "B.A. Su… Critical…
    ##  5 Terry N. Clark       t-clark@uchicago.edu    Socia… Prof… "B.A. Bo… Using de…
    ##  6 Elisabeth S. Clemens clemens@uchicago.edu    Socia… Will… "B.A. Ha… Politica…
    ##  7 James A. Evans       jevans@uchicago.edu     Socia… Max … "B.A. Br… Knowing,…
    ##  8 René D. Flores       renedf@uchicago.edu     Socia… Asso… "B.A. Un… Immigrat…
    ##  9 Marco Garrido        garrido@uchicago.edu    Socia… Asso… "B.A. Ha… Politica…
    ## 10 Andreas Glaeser      a-glaeser@uchicago.edu  Socia… Prof… "B.A. Eb… Cultural…
    ## # ℹ 17 more rows
…
    faculty_data_clean <- faculty_data_semi_clean %>%
      separate(first_degree, into = c("degree_one", "year_one"),
               sep = "(?<=\\D)(?=\\d)", remove = TRUE, fill = "right") %>%
      separate(second_degree, into = c("degree_two", "year_two"),
               sep = "(?<=\\D)(?=\\d)", remove = TRUE, fill = "right") %>%
      separate(third_degree, into = c("degree_three", "year_three"),
               sep = "(?<=\\D)(?=\\d)", remove = TRUE, fill = "right") %>% 
      mutate(across(starts_with("degree"), ~ na_if(., "Not listed"))) %>%
      mutate(across(starts_with("year"), ~ na_if(., "Not listed")))

    faculty_data_clean

    ## # A tibble: 27 × 22
    ##    name          email building room_number title degree_one year_one degree_two
    ##    <chr>         <chr> <chr>    <chr>       <chr> <chr>      <chr>    <chr>     
    ##  1 Andrew Abbott aabb… "Social… 313         Gust… "B.A. Har… 1970     " M.A. Un…
    ##  2 Luc Anselin   anse… "Social… 421         Stei… "B.S. Vri… 1975     " M.S. Vr…
    ##  3 Joyce Bell    jmbe… "Kelly " 104         Asso…  <NA>      <NA>      <NA>     
    ##  4 Neil Brenner  neil… "Social… 422         Lucy… "B.A. Sum… 1991     " M.A., G…
    ##  5 Terry N. Cla… t-cl… "Social… 321         Prof… "B.A. Bow… 1962     " M.A. Co…
    ##  6 Elisabeth S.… clem… "Social… 323         Will… "B.A. Har… 1980     " M.A. Un…
    ##  7 James A. Eva… jeva… "Social… 420         Max … "B.A. Bri… 1994     " M.A. St…
    ##  8 René D. Flor… rene… "Social… 424         Asso… "B.A. Uni… 2007     " M.A. Pr…
    ##  9 Marco Garrido garr… "Social… 405         Asso… "B.A. Har… 2000     " M.A. Un…
    ## 10 Andreas Glae… a-gl… "Social… 401 D-E     Prof… "B.A. Ebe… 1985     " M.A. Eb…
    ## # ℹ 17 more rows
    ## # ℹ 14 more variables: year_two <chr>, degree_three <chr>, year_three <chr>,
    ## #   interest_1 <chr>, interest_2 <chr>, interest_3 <chr>, interest_4 <chr>,
    ## #   interest_5 <chr>, interest_6 <chr>, interest_7 <chr>, interest_8 <chr>,
    ## #   interest_9 <chr>, interest_10 <chr>, interest_11 <chr>
…
    faculty_data_clean$quant_interests

    ##  [1] FALSE  TRUE FALSE FALSE FALSE FALSE  TRUE  TRUE FALSE FALSE FALSE FALSE
    ## [13] FALSE FALSE  TRUE  TRUE FALSE  TRUE FALSE FALSE FALSE FALSE FALSE FALSE
    ## [25] FALSE FALSE  TRUE

    faculty_data_clean

    ## # A tibble: 27 × 24
    ##    name          email building room_number title degree_one year_one degree_two
    ##    <chr>         <chr> <chr>    <chr>       <chr> <chr>      <chr>    <chr>     
    ##  1 Andrew Abbott aabb… "Social… 313         Gust… "B.A. Har… 1970     " M.A. Un…
    ##  2 Luc Anselin   anse… "Social… 421         Stei… "B.S. Vri… 1975     " M.S. Vr…
    ##  3 Joyce Bell    jmbe… "Kelly " 104         Asso…  <NA>      <NA>      <NA>     
    ##  4 Neil Brenner  neil… "Social… 422         Lucy… "B.A. Sum… 1991     " M.A., G…
    ##  5 Terry N. Cla… t-cl… "Social… 321         Prof… "B.A. Bow… 1962     " M.A. Co…
    ##  6 Elisabeth S.… clem… "Social… 323         Will… "B.A. Har… 1980     " M.A. Un…
    ##  7 James A. Eva… jeva… "Social… 420         Max … "B.A. Bri… 1994     " M.A. St…
    ##  8 René D. Flor… rene… "Social… 424         Asso… "B.A. Uni… 2007     " M.A. Pr…
    ##  9 Marco Garrido garr… "Social… 405         Asso… "B.A. Har… 2000     " M.A. Un…
    ## 10 Andreas Glae… a-gl… "Social… 401 D-E     Prof… "B.A. Ebe… 1985     " M.A. Eb…
    ## # ℹ 17 more rows
    ## # ℹ 16 more variables: year_two <chr>, degree_three <chr>, year_three <chr>,
    ## #   interest_1 <chr>, interest_2 <chr>, interest_3 <chr>, interest_4 <chr>,
    ## #   interest_5 <chr>, interest_6 <chr>, interest_7 <chr>, interest_8 <chr>,
    ## #   interest_9 <chr>, interest_10 <chr>, interest_11 <chr>,
    ## #   social_science_office <chr>, quant_interests <lgl>
…
